<svg xmlns="http://www.w3.org/2000/svg" id="svg792" version="1.1" viewBox="0 0 620.3 856.2">
  <g style="-inkscape-font-specification:Marianne-Medium" id="COVID-19" fill="#fff" font-family="Marianne Medium" font-size="17.5" font-weight="500" transform="translate(512.362 .016)">
    <path fill="#283a7f" d="M-3.175 3.36h107.947v35.627H-3.175z"/>
    <path id="COVID19" fill="#fff" d="M84.259 27.09v-1.573q.65.308 1.316.47.666.162 1.307.162 1.709 0 2.606-1.145.906-1.153 1.034-3.495-.495.735-1.256 1.128-.76.393-1.683.393-1.914 0-3.034-1.153-1.11-1.162-1.11-3.17 0-1.966 1.162-3.153 1.162-1.188 3.093-1.188 2.213 0 3.375 1.7 1.17 1.692 1.17 4.922 0 3.017-1.435 4.82-1.427 1.794-3.845 1.794-.65 0-1.316-.128t-1.384-.385zm3.435-5.41q1.162 0 1.837-.794.684-.795.684-2.18 0-1.375-.684-2.17-.675-.803-1.837-.803t-1.846.803q-.675.795-.675 2.17 0 1.385.675 2.18.684.794 1.846.794zm-11.622 4.222h2.82v-9.733l-3.068.615v-1.572l3.05-.615H80.6v11.305h2.82v1.452h-7.348zM70.31 21.86h4.605v1.401h-4.605zm-12.059-5.845v9.92h2.085q2.64 0 3.863-1.196 1.23-1.196 1.23-3.776 0-2.564-1.23-3.752-1.222-1.196-3.863-1.196zm-1.726-1.418h3.546q3.709 0 5.443 1.546 1.735 1.538 1.735 4.82 0 3.298-1.743 4.845-1.743 1.546-5.435 1.546h-3.546zm-6.125 0h1.726v12.757h-1.726zM40.356 27.354l-4.87-12.757h1.802l4.042 10.74 4.05-10.74h1.795l-4.862 12.757zm-12.76-11.587q-1.879 0-2.99 1.402-1.102 1.401-1.102 3.82 0 2.409 1.102 3.81 1.111 1.402 2.99 1.402 1.88 0 2.975-1.402 1.102-1.401 1.102-3.81 0-2.419-1.102-3.82-1.094-1.402-2.974-1.402zm0-1.401q2.684 0 4.29 1.803 1.607 1.794 1.607 4.82 0 3.016-1.607 4.819-1.606 1.794-4.29 1.794-2.69 0-4.306-1.794-1.606-1.795-1.606-4.82 0-3.025 1.606-4.82 1.615-1.802 4.307-1.802zm-8.942 1.213v1.82q-.871-.811-1.862-1.213-.983-.402-2.094-.402-2.187 0-3.35 1.342-1.162 1.333-1.162 3.862 0 2.521 1.163 3.863 1.162 1.333 3.35 1.333 1.11 0 2.093-.402.99-.402 1.862-1.213v1.803q-.905.615-1.922.922-1.008.308-2.136.308-2.897 0-4.563-1.769-1.667-1.777-1.667-4.845 0-3.076 1.667-4.845 1.666-1.777 4.563-1.777 1.145 0 2.153.308 1.017.299 1.905.905z"/>
  </g>
  <g id="g137" transform="translate(-3.732 -196.716)">
    <path id="masqueObligatoire" fill="#283a7f" d="M493.105 362.288h25.705v7.2h-16.18v6.877h15.215v7.2H502.63v8.46h16.724v7.2h-26.249zm-21.427 16.378q2.994 0 4.28-1.113 1.311-1.114 1.311-3.662 0-2.523-1.311-3.612-1.286-1.088-4.28-1.088h-4.008v9.475zm-4.008 6.58v13.979h-9.524v-36.937h14.546q7.299 0 10.688 2.45 3.414 2.449 3.414 7.743 0 3.662-1.781 6.012-1.757 2.35-5.32 3.463 1.955.446 3.489 2.029 1.559 1.559 3.142 4.75l5.17 10.49h-10.143l-4.502-9.179q-1.361-2.77-2.771-3.785-1.386-1.014-3.711-1.014zm-28.372-22.958h9.524v36.937h-9.524zm-24.827 6.235q-4.354 0-6.754 3.216-2.4 3.216-2.4 9.055 0 5.813 2.4 9.03 2.4 3.216 6.754 3.216 4.38 0 6.779-3.216 2.4-3.217 2.4-9.03 0-5.839-2.4-9.055-2.4-3.216-6.779-3.216zm0-6.903q8.907 0 13.953 5.097 5.047 5.096 5.047 14.077 0 8.955-5.047 14.052-5.046 5.096-13.953 5.096-8.881 0-13.953-5.096-5.047-5.097-5.047-14.052 0-8.98 5.047-14.077 5.072-5.096 13.953-5.096zm-52.34.668h34.042v7.2h-12.246v29.737h-9.524v-29.737h-12.271zm-7.731 30.207h-14.893l-2.35 6.73h-9.575l13.681-36.937h11.356l13.68 36.937h-9.574zm-12.518-6.852H352l-5.047-14.696zm-16.418 10.835q-3.563 1.732-7.397 2.598-3.835.866-7.917.866-9.228 0-14.621-5.146-5.393-5.17-5.393-14.002 0-8.931 5.492-14.052 5.492-5.122 15.041-5.122 3.687 0 7.051.693 3.39.693 6.383 2.054v7.644q-3.092-1.756-6.16-2.622-3.043-.866-6.11-.866-5.69 0-8.783 3.191-3.068 3.167-3.068 9.08 0 5.863 2.969 9.054 2.968 3.192 8.436 3.192 1.484 0 2.746-.173 1.286-.198 2.3-.594v-7.175h-5.813v-6.382h14.844zm-52.049-34.19h9.525v36.937h-9.525zm-28.272 0h9.525v29.737h16.724v7.2h-26.249zm-18.341 14.3q2.251 0 3.414-.99 1.163-.99 1.163-2.919 0-1.905-1.163-2.894-1.163-1.015-3.414-1.015h-5.27v7.818zm.321 16.155q2.87 0 4.305-1.212 1.46-1.213 1.46-3.662 0-2.4-1.435-3.587-1.435-1.212-4.33-1.212h-5.59v9.673zm8.857-13.285q3.068.89 4.75 3.29t1.682 5.888q0 5.344-3.612 7.966-3.612 2.623-10.984 2.623h-15.809v-36.937h14.3q7.694 0 11.133 2.326 3.463 2.325 3.463 7.447 0 2.696-1.261 4.601-1.262 1.88-3.662 2.796zm-48.799-10.935q-4.354 0-6.754 3.216-2.4 3.216-2.4 9.055 0 5.813 2.4 9.03 2.4 3.216 6.754 3.216 4.38 0 6.779-3.216 2.4-3.217 2.4-9.03 0-5.839-2.4-9.055-2.4-3.216-6.779-3.216zm0-6.903q8.906 0 13.953 5.097 5.047 5.096 5.047 14.077 0 8.955-5.047 14.052-5.047 5.096-13.953 5.096-8.881 0-13.953-5.096-5.047-5.097-5.047-14.052 0-8.98 5.047-14.077 5.072-5.096 13.953-5.096zm-67.534.668h34.041v7.2h-12.246v29.737h-9.524v-29.737h-12.271zm.316 1.163v7.818q-3.043-1.36-5.938-2.053-2.894-.693-5.467-.693-3.414 0-5.047.94-1.633.94-1.633 2.92 0 1.484 1.089 2.325 1.113.816 4.008 1.41l4.057.816q6.16 1.237 8.758 3.76 2.597 2.524 2.597 7.175 0 6.11-3.636 9.104-3.612 2.969-11.059 2.969-3.513 0-7.05-.668-3.539-.668-7.076-1.98v-8.04q3.537 1.88 6.828 2.846 3.315.94 6.383.94 3.117 0 4.774-1.04 1.658-1.038 1.658-2.968 0-1.732-1.138-2.672-1.113-.94-4.478-1.682l-3.686-.817q-5.542-1.187-8.115-3.785-2.548-2.597-2.548-7.001 0-5.517 3.563-8.486 3.562-2.969 10.242-2.969 3.043 0 6.259.47 3.216.446 6.655 1.361zm-56.003-1.163h25.704v7.2h-16.18v6.877H88.7v7.2H73.485v8.46h16.723v7.2H63.96zm398.28-53.2h25.705v7.2h-16.18v6.877h15.215v7.2h-15.215v8.46h16.724v7.2h-26.248zm-37.442 0h9.525v22.142q0 4.577 1.484 6.556 1.51 1.955 4.898 1.955 3.415 0 4.899-1.955 1.509-1.979 1.509-6.556v-22.142h9.525v22.142q0 7.843-3.934 11.677-3.933 3.835-11.999 3.835-8.04 0-11.973-3.835-3.934-3.834-3.934-11.677zm-24.319 37.605h-.742q-9.129 0-14.2-5.047-5.072-5.047-5.072-14.052 0-8.98 5.047-14.077 5.072-5.096 13.953-5.096 8.98 0 13.978 5.046 5.022 5.047 5.022 14.127 0 6.234-2.672 10.737-2.647 4.502-7.644 6.778l7.446 8.313h-9.08zm-1.014-31.37q-4.354 0-6.754 3.216-2.4 3.216-2.4 9.055 0 5.937 2.35 9.104 2.351 3.142 6.804 3.142 4.379 0 6.779-3.216 2.4-3.217 2.4-9.03 0-5.839-2.4-9.055-2.4-3.216-6.779-3.216zm-20.701-5.072v7.818q-3.043-1.36-5.938-2.053-2.894-.693-5.467-.693-3.414 0-5.047.94-1.633.94-1.633 2.92 0 1.484 1.089 2.325 1.113.816 4.007 1.41l4.058.816q6.16 1.237 8.757 3.76 2.598 2.524 2.598 7.175 0 6.11-3.637 9.104-3.612 2.969-11.058 2.969-3.513 0-7.051-.668-3.538-.668-7.076-1.98v-8.04q3.538 1.88 6.829 2.846 3.315.94 6.382.94 3.118 0 4.775-1.04 1.658-1.038 1.658-2.968 0-1.732-1.138-2.672-1.114-.94-4.478-1.682l-3.686-.817q-5.542-1.187-8.115-3.785-2.548-2.597-2.548-7.001 0-5.517 3.562-8.486 3.563-2.969 10.243-2.969 3.042 0 6.259.47 3.216.446 6.655 1.361zm-41.392 29.044h-14.893l-2.35 6.73h-9.575l13.681-36.937h11.356l13.68 36.937h-9.574zm-12.518-6.852h10.118l-5.047-14.696zm-56.003-23.355h12.123l8.411 19.767 8.461-19.767h12.098v36.937h-9.005v-27.016l-8.51 19.915h-6.037l-8.51-19.915v27.016h-9.03zm-43.978 0h25.704v7.2h-16.18v6.877h15.215v7.2h-15.214v8.46h16.723v7.2h-26.248zm-28.272 0h9.525v29.737h16.724v7.2H196.6zM169.71 336.45h8.906v7.546l-6.11 9.228h-5.27l2.474-9.228zm-19.368-27.362h9.525v36.937h-9.525zm-7.543 34.908q-2.622 1.36-5.467 2.053-2.845.693-5.938.693-9.227 0-14.62-5.146-5.394-5.17-5.394-14.002 0-8.857 5.393-14.003 5.394-5.17 14.621-5.17 3.093 0 5.938.692 2.845.693 5.467 2.054v7.644q-2.647-1.806-5.22-2.647-2.573-.841-5.418-.841-5.096 0-8.015 3.265-2.92 3.266-2.92 9.006 0 5.714 2.92 8.98 2.919 3.266 8.015 3.266 2.845 0 5.418-.841 2.573-.842 5.22-2.648zm-48.14-34.908h9.526v36.937H94.66z"/>
    <path id="bulle" fill="none" stroke="#ed1c24" stroke-miterlimit="10" stroke-width="5.333" d="M67.97 421.463h191.6l-11 31.9 44.8-32h224.4"/>
  </g>
  <g id="pictoHomme" stroke="#283a7f" transform="translate(0 72.673)">
    <path id="masks-1" fill="#3f5fb5" stroke-linecap="round" stroke-linejoin="round" stroke-miterlimit="10" stroke-width="3.333" d="M189.322 417.552s3.2 8.267 20.667 12.267l-1.334-8.934s45.2-9.466 65.334-8.533c19.733.8 63.333 9.067 63.333 9.067l-2.934 10.533s13.334-2 18.267-14l2 1.733s-3.867 12.8-19.867 15.334l-1.066 40.533-6.533 20.667s7.333-4.4 10.133-8.667l-2.267 7.2-11.2 12.133s-26.533 29.6-50.133 29.067c-41.333-.667-57.867-33.333-57.867-33.333s-11.466-12.4-13.333-15.467l-.933-4.667s10.133 10.267 13.333 10.267c.8-.667-3.6-15.6-3.6-15.6l-.933-44.133s-18.533-4.267-21.6-11.067z"/>
    <path id="bordsvisages-9" fill="none" stroke-linecap="round" stroke-width="3.333" d="M183.189 409.285s-5.333-1.6-7.467 6.4c-2.133 8 4.134 30.934 7.734 39.2 3.6 8.267 4.666 20.667 14.133 18.667l10.266 25.2s5.6 29.066.667 41.466c-5.816 11.704-6.317 18.36-14.504 28.547C211 590.72 230.8 607.158 278.26 602.203c26.418-4.771 41.223-7.771 48.957-24.113 0 0-9.895-20.005-5.762-42.938 4.267-22.934 7.6-35.333 7.6-35.333s10.667-9.734 14.4-24.934c0 0 4.133 1.867 7.6-2.933 3.333-4.8 9.067-20.667 10.267-24 1.333-3.467 11.2-26 6.133-33.333-5.067-7.334-10.667-4.4-10.667-4.4l-6.666-52.267-31.333-43.066-58-11.734-25.067 12.667-20.267 8.533-20.4 27.467-1.733 37.733z"/>
    <path id="tshirtbords-2" fill="#3f5fb5" stroke-linecap="round" stroke-miterlimit="10" stroke-width="3.333" d="M194.018 568.765c23.058 32.574 58.344 39.083 89.266 32.203 14.2-3.16 36.738-4.532 44.571-25.15 0 0 50.321 8.835 69.388 24.035-70.575 67.039-197.892 62.673-268.332-11.742 26.133-12.4 40.011-13.493 50.145-22.026 10.133-8.4 14.962 2.68 14.962 2.68z"/>
    <path id="cheveux-2" fill="#3f5fb5" stroke-width="4" d="M191.189 439.019l5.333-51.2s18.133-56.667 34-57.733c15.733-1.067 31.2-1.334 44.8-2.934 13.733-1.733 28.933-3.333 39.867 4.667 10.933 8 30.4 47.866 31.866 62.4 1.333 14.533 1.333 47.6 1.333 47.6s4-25.467 11.067-32.267c0 0 21.467-36.4 9.067-67.2a103.2 103.2 0 00-43.067-49.6c-3.066-.533-13.333-27.066-53.866-24.666-40.667 2.666-82.267 27.466-92.933 65.2-10.667 37.733 4.4 77.733 4.4 77.733zm0 0l5.333-51.2s18.133-56.667 34-57.733c15.733-1.067 31.2-1.334 44.8-2.934 13.733-1.733 28.933-3.333 39.867 4.667 10.933 8 30.4 47.866 31.866 62.4 1.333 14.533 1.333 47.6 1.333 47.6s4-25.467 11.067-32.267c0 0 21.467-36.4 9.067-67.2a103.2 103.2 0 00-43.067-49.6c-3.066-.533-13.333-27.066-53.866-24.666-40.667 2.666-82.267 27.466-92.933 65.2-10.667 37.733 4.4 77.733 4.4 77.733z"/>
    <path id="cercle-7" fill="none" stroke-width="14.4" d="M278.122 649.285c111.466 0 192.266-90.667 192.266-202.266 0-111.467-90.666-202.133-202.266-202.133-111.466 0-192.133 90.666-192.133 202.133 0 111.466 90.667 202.266 202.133 202.266z"/>
  </g>
  <path id="EnsembleFaisonsBloc" fill="#283a7f" d="M545.26 838.503v4.427q-1.871-.782-3.613-1.172-1.741-.39-3.287-.39-1.66 0-2.474.422-.798.407-.798 1.27 0 .7.602 1.074.619.374 2.198.553l1.025.147q4.476.57 6.022 1.872 1.546 1.302 1.546 4.085 0 2.913-2.148 4.378-2.148 1.465-6.413 1.465-1.806 0-3.743-.293-1.92-.277-3.955-.846v-4.427q1.741.846 3.564 1.27 1.84.422 3.727.422 1.71 0 2.572-.472.863-.472.863-1.4 0-.78-.603-1.155-.586-.39-2.36-.602l-1.025-.13q-3.89-.489-5.452-1.807-1.563-1.318-1.563-4.004 0-2.897 1.986-4.297 1.985-1.4 6.087-1.4 1.611 0 3.385.245 1.774.244 3.858.765zm-34.236 10.563v-11.133h5.86v1.823q0 1.48-.017 3.727-.016 2.23-.016 2.979 0 2.197.114 3.173.114.96.39 1.4.358.57.928.879.586.31 1.335.31 1.823 0 2.864-1.4 1.042-1.4 1.042-3.89v-9.001h5.827v18.229h-5.827v-2.637q-1.319 1.595-2.8 2.36-1.464.75-3.239.75-3.157 0-4.817-1.938-1.644-1.937-1.644-5.631zm-.663-6.169q-.765-.358-1.53-.52-.749-.18-1.514-.18-2.246 0-3.466 1.449-1.205 1.432-1.205 4.118v8.398h-5.827v-18.23h5.827v2.996q1.123-1.79 2.572-2.604 1.465-.83 3.5-.83.292 0 .634.032.342.016.993.098zm-23.175-4.964h5.827v18.229h-5.827zm0-7.096h5.827v4.752h-5.827zm-20.528 7.096h5.827l4.54 12.598 4.525-12.598h5.843l-7.177 18.229h-6.397zm-8.365 10.026q-1.823 0-2.75.618-.912.619-.912 1.823 0 1.107.733 1.742.748.618 2.067.618 1.644 0 2.767-1.172 1.123-1.188 1.123-2.962v-.667zm8.903-2.197v10.4h-5.875v-2.702q-1.172 1.66-2.637 2.425-1.465.749-3.565.749-2.832 0-4.606-1.644-1.757-1.66-1.757-4.297 0-3.206 2.197-4.703 2.213-1.498 6.933-1.498h3.435v-.456q0-1.383-1.09-2.018-1.091-.65-3.403-.65-1.871 0-3.483.373-1.61.375-2.994 1.124v-4.444q1.871-.456 3.76-.683 1.887-.245 3.775-.245 4.932 0 7.113 1.954 2.197 1.936 2.197 6.315zm-19.18-.7v11.1h-5.86v-8.496q0-2.36-.113-3.255-.098-.895-.358-1.319-.342-.57-.928-.878-.586-.326-1.334-.326-1.823 0-2.865 1.416-1.042 1.4-1.042 3.89v8.968h-5.827v-18.23h5.827v2.67q1.319-1.595 2.8-2.344 1.48-.765 3.271-.765 3.158 0 4.785 1.937 1.644 1.937 1.644 5.632zm-30.551-3.402q-1.937 0-2.963 1.4-1.009 1.383-1.009 4.004 0 2.62 1.01 4.02 1.025 1.383 2.962 1.383 1.904 0 2.913-1.383 1.01-1.4 1.01-4.02 0-2.62-1.01-4.004-1.009-1.4-2.913-1.4zm0-4.167q4.703 0 7.34 2.54 2.653 2.539 2.653 7.03 0 4.493-2.653 7.032-2.637 2.539-7.34 2.539-4.72 0-7.39-2.539-2.653-2.54-2.653-7.031 0-4.492 2.653-7.031 2.67-2.54 7.39-2.54zm-8.7 5.404q-.765-.358-1.53-.52-.75-.18-1.514-.18-2.246 0-3.467 1.449-1.204 1.432-1.204 4.118v8.398h-5.827v-18.23h5.827v2.996q1.123-1.79 2.571-2.604 1.465-.83 3.5-.83.293 0 .634.032.342.016.993.098zm-25.767-1.237q-1.937 0-2.962 1.4-1.01 1.383-1.01 4.004 0 2.62 1.01 4.02 1.025 1.383 2.962 1.383 1.904 0 2.914-1.383 1.009-1.4 1.009-4.02 0-2.62-1.01-4.004-1.009-1.4-2.913-1.4zm0-4.167q4.704 0 7.34 2.54 2.654 2.539 2.654 7.03 0 4.493-2.653 7.032-2.637 2.539-7.34 2.539-4.72 0-7.39-2.539-2.653-2.54-2.653-7.031 0-4.492 2.653-7.031 2.67-2.54 7.39-2.54zm-11.379 1.01v4.752q-1.188-.814-2.392-1.204-1.188-.39-2.474-.39-2.441 0-3.809 1.431-1.35 1.416-1.35 3.972 0 2.555 1.35 3.987 1.368 1.416 3.809 1.416 1.367 0 2.588-.407 1.237-.406 2.278-1.204v4.769q-1.367.504-2.783.749-1.4.26-2.815.26-4.932 0-7.715-2.523-2.783-2.539-2.783-7.047 0-4.509 2.783-7.031 2.783-2.54 7.715-2.54 1.432 0 2.815.26 1.4.245 2.783.75zm-24.766 8.496v1.66H333.23q.212 2.05 1.481 3.076 1.27 1.025 3.548 1.025 1.84 0 3.76-.537 1.937-.553 3.971-1.66v4.492q-2.067.782-4.134 1.172-2.067.407-4.134.407-4.948 0-7.698-2.506-2.735-2.523-2.735-7.064 0-4.46 2.686-7.015 2.702-2.556 7.422-2.556 4.297 0 6.868 2.588 2.588 2.588 2.588 6.918zm-5.99-1.937q0-1.66-.976-2.67-.96-1.025-2.523-1.025-1.693 0-2.75.96-1.059.944-1.319 2.735zm-21.84-14.225h5.827v25.325h-5.827zm-10.037 16.162v1.66h-13.623q.212 2.05 1.482 3.076 1.269 1.025 3.548 1.025 1.839 0 3.76-.537 1.936-.553 3.97-1.66v4.492q-2.066.782-4.133 1.172-2.067.407-4.134.407-4.948 0-7.699-2.506-2.734-2.523-2.734-7.064 0-4.46 2.685-7.015 2.702-2.556 7.422-2.556 4.297 0 6.869 2.588 2.587 2.588 2.587 6.918zm-5.99-1.937q0-1.66-.976-2.67-.96-1.025-2.522-1.025-1.693 0-2.751.96-1.058.944-1.318 2.735zm-12.231-2.165q-.765-.358-1.53-.52-.749-.18-1.514-.18-2.246 0-3.467 1.449-1.204 1.432-1.204 4.118v8.398h-5.827v-18.23h5.827v2.996q1.123-1.79 2.572-2.604 1.464-.83 3.499-.83.293 0 .635.032.342.016.993.098zm-21.644-10.14v5.176h6.005v4.167h-6.005v7.73q0 1.27.504 1.726.505.44 2.002.44h2.995v4.166h-4.997q-3.45 0-4.899-1.432-1.432-1.449-1.432-4.9v-7.73h-2.897v-4.167h2.897v-5.176zm-8.47 12.305v11.1h-5.86v-8.496q0-2.36-.114-3.255-.098-.895-.358-1.319-.342-.57-.928-.878-.586-.326-1.335-.326-1.823 0-2.864 1.416-1.042 1.4-1.042 3.89v8.968h-5.827v-18.23h5.827v2.67q1.318-1.595 2.8-2.344 1.48-.765 3.271-.765 3.158 0 4.785 1.937 1.644 1.937 1.644 5.632zm-30.553-3.402q-1.936 0-2.962 1.4-1.009 1.383-1.009 4.004 0 2.62 1.01 4.02 1.025 1.383 2.961 1.383 1.905 0 2.914-1.383 1.009-1.4 1.009-4.02 0-2.62-1.01-4.004-1.008-1.4-2.913-1.4zm0-4.167q4.704 0 7.34 2.54 2.654 2.539 2.654 7.03 0 4.493-2.653 7.032-2.637 2.539-7.34 2.539-4.72 0-7.39-2.539-2.653-2.54-2.653-7.031 0-4.492 2.653-7.031 2.67-2.54 7.39-2.54zm-11.378 1.01v4.752q-1.188-.814-2.393-1.204-1.188-.39-2.474-.39-2.441 0-3.808 1.431-1.351 1.416-1.351 3.972 0 2.555 1.35 3.987 1.368 1.416 3.81 1.416 1.367 0 2.587-.407 1.237-.406 2.279-1.204v4.769q-1.367.504-2.783.749-1.4.26-2.816.26-4.932 0-7.715-2.523-2.783-2.539-2.783-7.047 0-4.509 2.783-7.031 2.783-2.54 7.715-2.54 1.432 0 2.816.26 1.4.245 2.783.75zm-27.1 0v4.752q-1.188-.814-2.393-1.204-1.188-.39-2.474-.39-2.441 0-3.808 1.431-1.351 1.416-1.351 3.972 0 2.555 1.35 3.987 1.368 1.416 3.81 1.416 1.367 0 2.587-.407 1.237-.406 2.279-1.204v4.769q-1.367.504-2.783.749-1.4.26-2.816.26-4.932 0-7.715-2.523-2.783-2.539-2.783-7.047 0-4.509 2.783-7.031 2.783-2.54 7.715-2.54 1.432 0 2.816.26 1.4.245 2.783.75zm-27.118 3.157q-1.937 0-2.962 1.4-1.01 1.383-1.01 4.004 0 2.62 1.01 4.02 1.025 1.383 2.962 1.383 1.904 0 2.913-1.383 1.01-1.4 1.01-4.02 0-2.62-1.01-4.004-1.009-1.4-2.913-1.4zm0-4.167q4.704 0 7.34 2.54 2.653 2.539 2.653 7.03 0 4.493-2.653 7.032-2.636 2.539-7.34 2.539-4.72 0-7.39-2.539-2.652-2.54-2.652-7.031 0-4.492 2.653-7.031 2.669-2.54 7.389-2.54zm-18.308-6.656h5.826v25.325h-5.826zm-12.033 21.565q1.872 0 2.848-1.367.993-1.367.993-3.971t-.993-3.972q-.976-1.367-2.848-1.367-1.872 0-2.881 1.384-.993 1.367-.993 3.955t.993 3.971q1.009 1.367 2.88 1.367zm-3.874-11.8q1.205-1.595 2.67-2.344 1.464-.765 3.368-.765 3.37 0 5.534 2.686 2.165 2.67 2.165 6.885t-2.165 6.9q-2.164 2.67-5.534 2.67-1.904 0-3.369-.749-1.464-.765-2.669-2.36v2.637h-5.827v-25.325h5.827zm-16.152-2.1v4.428q-1.872-.782-3.613-1.172-1.742-.39-3.288-.39-1.66 0-2.474.422-.797.407-.797 1.27 0 .7.602 1.074.618.374 2.197.553l1.026.147q4.475.57 6.022 1.872 1.546 1.302 1.546 4.085 0 2.913-2.149 4.378-2.148 1.465-6.412 1.465-1.807 0-3.744-.293-1.92-.277-3.955-.846v-4.427q1.742.846 3.565 1.27 1.839.422 3.727.422 1.709 0 2.571-.472.863-.472.863-1.4 0-.78-.602-1.155-.586-.39-2.36-.602l-1.026-.13q-3.89-.489-5.452-1.807-1.563-1.318-1.563-4.004 0-2.897 1.986-4.297t6.087-1.4q1.612 0 3.386.245 1.774.244 3.857.765zm-16.348 6.56v11.1h-5.86v-8.496q0-2.36-.113-3.255-.098-.895-.358-1.319-.342-.57-.928-.878-.586-.326-1.335-.326-1.822 0-2.864 1.416-1.042 1.4-1.042 3.89v8.968H79.46v-18.23h5.827v2.67q1.319-1.595 2.8-2.344 1.48-.765 3.271-.765 3.158 0 4.785 1.937 1.644 1.937 1.644 5.632zm-30.551-3.402q-1.937 0-2.963 1.4-1.009 1.383-1.009 4.004 0 2.62 1.01 4.02 1.025 1.383 2.962 1.383 1.904 0 2.913-1.383 1.01-1.4 1.01-4.02 0-2.62-1.01-4.004-1.01-1.4-2.913-1.4zm0-4.167q4.703 0 7.34 2.54 2.653 2.539 2.653 7.03 0 4.493-2.653 7.032-2.637 2.539-7.34 2.539-4.72 0-7.39-2.539-2.653-2.54-2.653-7.031 0-4.492 2.653-7.031 2.67-2.54 7.39-2.54zm-10 1.01v4.427q-1.872-.782-3.614-1.172-1.741-.39-3.288-.39-1.66 0-2.474.422-.797.407-.797 1.27 0 .7.602 1.074.619.374 2.197.553l1.026.147q4.476.57 6.022 1.872 1.546 1.302 1.546 4.085 0 2.913-2.148 4.378-2.149 1.465-6.413 1.465-1.807 0-3.744-.293-1.92-.277-3.955-.846v-4.427q1.742.846 3.565 1.27 1.839.422 3.727.422 1.709 0 2.572-.472.862-.472.862-1.4 0-.78-.602-1.155-.586-.39-2.36-.602l-1.025-.13q-3.89-.489-5.453-1.807-1.562-1.318-1.562-4.004 0-2.897 1.985-4.297 1.986-1.4 6.087-1.4 1.612 0 3.386.245 1.774.244 3.857.765zm-23.542-.57h5.827v18.229h-5.827zm0-7.096h5.827v4.752h-5.827zm-10.83 17.122q-1.822 0-2.75.618-.912.619-.912 1.823 0 1.107.733 1.742.748.618 2.067.618 1.644 0 2.767-1.172 1.123-1.188 1.123-2.962v-.667zm8.903-2.197v10.4h-5.875v-2.702q-1.172 1.66-2.637 2.425-1.465.749-3.564.749-2.832 0-4.606-1.644-1.758-1.66-1.758-4.297 0-3.206 2.197-4.703 2.213-1.498 6.934-1.498h3.434v-.456q0-1.383-1.09-2.018-1.091-.65-3.402-.65-1.872 0-3.483.373-1.612.375-2.995 1.124v-4.444q1.871-.456 3.76-.683 1.888-.245 3.776-.245 4.931 0 7.112 1.954 2.197 1.936 2.197 6.315zm-17.711-14.925v3.824h-3.223q-1.237 0-1.725.456-.488.44-.488 1.546v1.27h4.98v4.167H8.62v14.062H2.793V842.1H-.104v-4.167h2.897v-1.27q0-2.978 1.66-4.394 1.66-1.432 5.143-1.432zm334.173-18.274h5.86v4.964l-4.02 6.071H346.6l1.628-6.07zm-1.639-2.864v1.66h-13.623q.212 2.05 1.481 3.076 1.27 1.025 3.548 1.025 1.84 0 3.76-.537 1.937-.553 3.972-1.66v4.492q-2.068.782-4.135 1.172-2.067.407-4.134.407-4.948 0-7.698-2.506-2.735-2.523-2.735-7.064 0-4.46 2.686-7.015 2.702-2.556 7.422-2.556 4.297 0 6.868 2.588 2.588 2.588 2.588 6.918zm-5.99-1.937q0-1.66-.976-2.67-.96-1.025-2.523-1.025-1.692 0-2.75.96-1.058.944-1.319 2.735zm-21.84-14.225h5.827v25.325h-5.827zm-12.033 21.565q1.872 0 2.849-1.367.993-1.367.993-3.971t-.993-3.972q-.977-1.367-2.849-1.367-1.871 0-2.88 1.384-.993 1.367-.993 3.955t.993 3.971q1.009 1.367 2.88 1.367zm-3.873-11.8q1.204-1.595 2.67-2.344 1.464-.765 3.368-.765 3.37 0 5.534 2.686 2.165 2.67 2.165 6.885t-2.165 6.9q-2.165 2.67-5.534 2.67-1.904 0-3.369-.749-1.465-.765-2.67-2.36v2.637h-5.826v-25.325h5.827zm-18.932.358q1.106-1.692 2.62-2.571 1.53-.896 3.353-.896 3.141 0 4.785 1.937 1.644 1.937 1.644 5.632v11.1h-5.86v-9.505q.017-.212.017-.44.016-.227.016-.65 0-1.937-.57-2.8-.57-.879-1.839-.879-1.66 0-2.571 1.367-.896 1.367-.928 3.955v8.952h-5.86v-9.505q0-3.027-.52-3.89-.521-.879-1.856-.879-1.676 0-2.588 1.383-.911 1.368-.911 3.923v8.968h-5.86v-18.23h5.86v2.67q1.074-1.546 2.458-2.327 1.4-.782 3.076-.782 1.888 0 3.336.912 1.449.911 2.198 2.555zM265.99 809.7v1.66h-13.623q.212 2.05 1.481 3.076 1.27 1.025 3.549 1.025 1.839 0 3.76-.537 1.936-.553 3.97-1.66v4.492q-2.066.782-4.133 1.172-2.067.407-4.135.407-4.947 0-7.698-2.506-2.734-2.523-2.734-7.064 0-4.46 2.685-7.015 2.702-2.556 7.422-2.556 4.297 0 6.868 2.588 2.588 2.588 2.588 6.918zm-5.99-1.937q0-1.66-.976-2.67-.96-1.025-2.523-1.025-1.692 0-2.75.96-1.058.944-1.319 2.735zm-13.531-6.56v4.428q-1.872-.782-3.614-1.172-1.741-.39-3.287-.39-1.66 0-2.474.422-.798.407-.798 1.27 0 .7.602 1.074.619.374 2.198.553l1.025.147q4.476.57 6.022 1.872 1.546 1.302 1.546 4.085 0 2.913-2.148 4.378-2.149 1.465-6.413 1.465-1.806 0-3.743-.293-1.92-.277-3.955-.846v-4.427q1.741.846 3.564 1.27 1.84.422 3.727.422 1.71 0 2.572-.472.862-.472.862-1.4 0-.78-.602-1.155-.586-.39-2.36-.602l-1.025-.13q-3.89-.489-5.453-1.807-1.562-1.318-1.562-4.004 0-2.897 1.986-4.297 1.985-1.4 6.087-1.4 1.611 0 3.385.245 1.774.244 3.858.765zm-16.348 6.56v11.1h-5.86v-8.496q0-2.36-.114-3.255-.097-.895-.358-1.319-.342-.57-.928-.878-.585-.326-1.334-.326-1.823 0-2.865 1.416-1.041 1.4-1.041 3.89v8.968h-5.827v-18.23h5.827v2.67q1.318-1.595 2.8-2.344 1.48-.765 3.27-.765 3.158 0 4.786 1.937 1.644 1.937 1.644 5.632zm-38-13.2h16.91v4.736h-10.644v4.525h10.01v4.736h-10.01v5.567h11.003v4.736H192.12z"/>
</svg>
