<?xml version="1.0" encoding="UTF-8" standalone="no"?>
<svg
   xmlns:dc="http://purl.org/dc/elements/1.1/"
   xmlns:cc="http://creativecommons.org/ns#"
   xmlns:rdf="http://www.w3.org/1999/02/22-rdf-syntax-ns#"
   xmlns:svg="http://www.w3.org/2000/svg"
   xmlns="http://www.w3.org/2000/svg"
   xmlns:sodipodi="http://sodipodi.sourceforge.net/DTD/sodipodi-0.dtd"
   xmlns:inkscape="http://www.inkscape.org/namespaces/inkscape"
   viewBox="0 0 620.3 856.2"
   version="1.1"
   id="svg792"
   sodipodi:docname="affiche-masque-obligatoire_0opti.svg"
   inkscape:version="1.0 (1.0+r73+1)">
  <metadata
     id="metadata796">
    <rdf:RDF>
      <cc:Work
         rdf:about="">
        <dc:format>image/svg+xml</dc:format>
        <dc:type
           rdf:resource="http://purl.org/dc/dcmitype/StillImage" />
        <dc:title />
      </cc:Work>
    </rdf:RDF>
  </metadata>
  <sodipodi:namedview
     inkscape:document-rotation="0"
     pagecolor="#ffffff"
     bordercolor="#666666"
     borderopacity="1"
     objecttolerance="10"
     gridtolerance="10"
     guidetolerance="10"
     inkscape:pageopacity="0"
     inkscape:pageshadow="2"
     inkscape:window-width="1870"
     inkscape:window-height="1009"
     id="namedview794"
     showgrid="false"
     inkscape:zoom="2.3471839"
     inkscape:cx="253.42692"
     inkscape:cy="593.40957"
     inkscape:window-x="50"
     inkscape:window-y="34"
     inkscape:window-maximized="1"
     inkscape:current-layer="svg792" />
  <defs
     id="defs740">
    <clipPath
       id="a"
       clipPathUnits="userSpaceOnUse">
      <path
         d="M0 0h595.3v841.9H0z"
         id="path731" />
    </clipPath>
    <clipPath
       id="b"
       clipPathUnits="userSpaceOnUse">
      <path
         d="M247.4 454.7a157 157 0 0174.3-295.4A157 157 0 01396 454.7z"
         id="path734" />
    </clipPath>
    <clipPath
       id="c"
       clipPathUnits="userSpaceOnUse">
      <path
         d="M0 0h595.3v841.9H0z"
         id="path737" />
    </clipPath>
  </defs>
  <path
     fill="#283a7f"
     d="M475.7 48.2h144.6V0H475.7z"
     id="path742" />
  <g
     aria-label="COVID-19"
     transform="matrix(1.33333 0 0 1.33333 491 32.8)"
     id="text746"
     style="font-weight:500;font-size:17.5px;font-family:'Marianne Medium';-inkscape-font-specification:Marianne-Medium;fill:#ffffff">
    <path
       id="COVID19"
       d="M 76.875107,-0.26489258 V -1.8371582 q 0.649414,0.3076172 1.315918,0.4699707 0.666504,0.1623535 1.307373,0.1623535 1.708984,0 2.606201,-1.1450195 0.905762,-1.1535645 1.033936,-3.4948731 -0.495606,0.7348633 -1.256104,1.1279297 -0.760498,0.3930664 -1.68335,0.3930664 -1.914062,0 -3.033447,-1.1535644 -1.11084,-1.1621094 -1.11084,-3.170166 0,-1.9653321 1.16211,-3.1530761 1.162109,-1.187744 3.093261,-1.187744 2.213135,0 3.375245,1.700439 1.170654,1.6918947 1.170654,4.9218752 0,3.0163574 -1.435547,4.8193359 -1.427002,1.79443363 -3.845215,1.79443363 -0.649414,0 -1.315918,-0.12817382 -0.666504,-0.12817383 -1.384277,-0.38452149 z m 3.435058,-5.40893552 q 1.16211,0 1.837159,-0.7946778 0.683593,-0.7946777 0.683593,-2.178955 0,-1.3757321 -0.683593,-2.1704101 -0.675049,-0.803223 -1.837159,-0.803223 -1.162109,0 -1.845703,0.803223 -0.675049,0.794678 -0.675049,2.1704101 0,1.3842773 0.675049,2.178955 0.683594,0.7946778 1.845703,0.7946778 z m -11.622253,4.2211914 h 2.819824 v -9.7326663 l -3.067627,0.615235 v -1.572266 l 3.050537,-0.615234 h 1.726075 v 11.3049313 h 2.819824 V 0 h -7.348633 z m -5.760921,-4.0417481 h 4.605712 v 1.4013672 H 62.926991 Z M 50.868603,-11.339111 v 9.920654 h 2.084961 q 2.640381,0 3.862304,-1.1962891 1.230469,-1.1962891 1.230469,-3.7768555 0,-2.5634765 -1.230469,-3.7512204 -1.221923,-1.196289 -3.862304,-1.196289 z m -1.726074,-1.418457 h 3.546142 q 3.708496,0 5.443115,1.54663 1.734619,1.5380864 1.734619,4.8193364 0,3.2983399 -1.743164,4.8449707 Q 56.380077,0 52.688671,0 h -3.546142 z m -6.125,0 h 1.726074 V 0 H 43.017529 Z M 32.972324,0 28.101719,-12.757568 h 1.802978 l 4.041748,10.7409664 4.050293,-10.7409664 h 1.794434 L 34.929111,0 Z M 20.213252,-11.586914 q -1.879883,0 -2.990723,1.401367 -1.102295,1.4013673 -1.102295,3.8195802 0,2.409668 1.102295,3.8110352 1.11084,1.4013671 2.990723,1.4013671 1.879883,0 2.973633,-1.4013671 1.102295,-1.4013672 1.102295,-3.8110352 0,-2.4182129 -1.102295,-3.8195802 -1.09375,-1.401367 -2.973633,-1.401367 z m 0,-1.401367 q 2.683106,0 4.289551,1.802978 1.606445,1.7944339 1.606445,4.8193362 0,3.0163574 -1.606445,4.8193359 -1.606445,1.79443363 -4.289551,1.79443363 -2.69165,0 -4.306641,-1.79443363 -1.606445,-1.7944336 -1.606445,-4.8193359 0,-3.0249023 1.606445,-4.8193362 1.614991,-1.802978 4.306641,-1.802978 z m -8.9425,1.213379 v 1.820068 q -0.871582,-0.811768 -1.862793,-1.213379 -0.982666,-0.401611 -2.0935059,-0.401611 -2.1875,0 -3.3496093,1.341553 -1.1621094,1.3330073 -1.1621094,3.8623042 0,2.520752 1.1621094,3.8623047 1.1621093,1.3330078 3.3496093,1.3330078 1.1108399,0 2.0935059,-0.4016113 0.991211,-0.4016114 1.862793,-1.2133789 v 1.80297848 q -0.905762,0.61523438 -1.9226075,0.92285157 -1.0083007,0.30761718 -2.1362304,0.30761718 -2.8967286,0 -4.5629883,-1.76879883 -1.66625978,-1.7773437 -1.66625978,-4.8449707 0,-3.0761719 1.66625978,-4.8449712 1.6662597,-1.777343 4.5629883,-1.777343 1.1450195,0 2.1533203,0.307617 1.0168456,0.299072 1.9055176,0.905762 z" />
  </g>
  <g
     aria-label="ICI, LE MASQUE"
     transform="matrix(1.33333 0 0 1.33333 72.7 170)"
     id="text750"
     style="font-weight:800;font-size:38px;font-family:'Marianne ExtraBold';-inkscape-font-specification:Marianne-ExtraBold;fill:#283a7f" />
  <g
     aria-label="EST OBLIGATOIRE"
     transform="matrix(1.33333 0 0 1.33333 42 223.2)"
     id="text754"
     style="font-weight:800;font-size:38px;font-family:'Marianne ExtraBold';-inkscape-font-specification:Marianne-ExtraBold;fill:#283a7f">
    <path
       id="ICI MASQUE OBLIGATOIRE"
       d="m 325.34827,-27.702148 h 19.27832 v 5.399414 h -12.13477 v 5.158203 h 11.41113 v 5.399414 h -11.41113 v 6.3457029 h 12.54297 V 0 h -19.68652 z m -16.07056,12.283203 q 2.24512,0 3.20996,-0.834961 0.9834,-0.834961 0.9834,-2.746094 0,-1.892578 -0.9834,-2.708984 -0.96484,-0.816407 -3.20996,-0.816407 h -3.00586 v 7.106446 z m -3.00586,4.935547 V 0 h -7.14355 v -27.702148 h 10.91015 q 5.47363,0 8.01563,1.836914 2.56054,1.836914 2.56054,5.807617 0,2.746094 -1.33593,4.508789 -1.31739,1.762695 -3.98926,2.597656 1.46582,0.333984 2.61621,1.521484 1.16894,1.168946 2.35644,3.5625005 L 324.14001,0 h -7.60742 l -3.37695,-6.8837891 q -1.02051,-2.078125 -2.07813,-2.8388672 -1.03906,-0.7607417 -2.7832,-0.7607417 z m -21.27957,-17.21875 h 7.14355 V 0 h -7.14355 z m -18.61971,4.675781 q -3.26562,0 -5.06543,2.412109 -1.7998,2.41211 -1.7998,6.791016 0,4.3603514 1.7998,6.7724608 1.79981,2.4121093 5.06543,2.4121093 3.28418,0 5.08399,-2.4121093 1.7998,-2.4121094 1.7998,-6.7724608 0,-4.378906 -1.7998,-6.791016 -1.79981,-2.412109 -5.08399,-2.412109 z m 0,-5.176758 q 6.67969,0 10.46485,3.822266 3.78515,3.822265 3.78515,10.557617 0,6.7167967 -3.78515,10.5390623 -3.78516,3.82226564 -10.46485,3.82226564 -6.66113,0 -10.46484,-3.82226564 -3.78516,-3.8222656 -3.78516,-10.5390623 0,-6.735352 3.78516,-10.557617 3.80371,-3.822266 10.46484,-3.822266 z m -39.25482,0.500977 H 252.649 v 5.399414 h -9.18457 V 0 h -7.14355 v -22.302734 h -9.20313 z m -5.79892,22.655273 H 210.14891 L 208.38622,0 h -7.18067 l 10.26074,-27.702148 h 8.5166 L 230.24364,0 h -7.18067 z m -9.38867,-5.139648 h 7.58887 l -3.78516,-11.021485 z m -12.31349,8.1269527 q -2.67188,1.29882811 -5.54785,1.94824218 -2.87598,0.64941406 -5.9375,0.64941406 -6.9209,0 -10.96582,-3.85937504 -4.04493,-3.8779296 -4.04493,-10.5019529 0,-6.698242 4.11915,-10.539063 4.11914,-3.84082 11.28125,-3.84082 2.76464,0 5.28808,0.519531 2.54199,0.519532 4.78711,1.540039 v 5.733399 q -2.31934,-1.317383 -4.62012,-1.966797 -2.28222,-0.649414 -4.583,-0.649414 -4.26758,0 -6.58692,2.393555 -2.30078,2.375 -2.30078,6.80957 0,4.3974607 2.22656,6.7910154 2.22657,2.3935547 6.32715,2.3935547 1.11328,0 2.05957,-0.1298828 0.96485,-0.1484375 1.72559,-0.4453125 v -5.3808598 h -4.36035 v -4.787109 h 11.13281 z M 160.58028,-27.702148 h 7.14355 V 0 h -7.14355 z m -21.204,0 h 7.14356 v 22.3027339 h 12.54297 V 0 h -19.68653 z m -13.75629,10.724609 q 1.68847,0 2.56054,-0.742188 0.87207,-0.742187 0.87207,-2.189453 0,-1.428711 -0.87207,-2.170898 -0.87207,-0.760742 -2.56054,-0.760742 h -3.95215 v 5.863281 z m 0.24121,12.1162109 q 2.15234,0 3.22851,-0.9091797 1.09473,-0.9091797 1.09473,-2.7460938 0,-1.7998044 -1.07617,-2.6904294 -1.07617,-0.90918 -3.24707,-0.90918 h -4.19336 v 7.2548829 z m 6.64258,-9.9638669 q 2.30078,0.667968 3.5625,2.467773 1.26172,1.799805 1.26172,4.4160158 0,4.0078124 -2.70899,5.9746093 Q 131.91003,0 126.38073,0 h -11.85645 v -27.702148 h 10.72461 q 5.77051,0 8.34961,1.74414 2.59766,1.744141 2.59766,5.584961 0,2.022461 -0.94629,3.451172 -0.94629,1.410156 -2.74609,2.09668 z m -36.599201,-8.201172 q -3.265625,0 -5.06543,2.412109 -1.799804,2.41211 -1.799804,6.791016 0,4.3603514 1.799804,6.7724608 1.799805,2.4121093 5.06543,2.4121093 3.28418,0 5.083981,-2.4121093 1.79981,-2.4121094 1.79981,-6.7724608 0,-4.378906 -1.79981,-6.791016 -1.799801,-2.412109 -5.083981,-2.412109 z m 0,-5.176758 q 6.679691,0 10.464841,3.822266 3.78516,3.822265 3.78516,10.557617 0,6.7167967 -3.78516,10.5390623 -3.78515,3.82226564 -10.464841,3.82226564 -6.661133,0 -10.464844,-3.82226564 -3.785156,-3.8222656 -3.785156,-10.5390623 0,-6.735352 3.785156,-10.557617 3.803711,-3.822266 10.464844,-3.822266 z m -50.651031,0.500977 h 25.53125 v 5.399414 H 61.600227 V 0 h -7.143554 v -22.302734 h -9.203125 z m 0.237054,0.87207 v 5.863281 q -2.282226,-1.020508 -4.453125,-1.540039 -2.170898,-0.519531 -4.100585,-0.519531 -2.560547,0 -3.785157,0.705078 -1.224609,0.705078 -1.224609,2.189453 0,1.113281 0.816406,1.744141 0.834961,0.612304 3.00586,1.057617 l 3.042968,0.612305 q 4.620117,0.927734 6.56836,2.820312 1.948242,1.892578 1.948242,5.3808594 0,4.5830078 -2.727539,6.828125 -2.708985,2.22656254 -8.293946,2.22656254 -2.634765,0 -5.288085,-0.50097657 -2.653321,-0.50097656 -5.306641,-1.48437497 v -6.0302735 q 2.65332,1.4101563 5.121094,2.1337891 2.486328,0.7050781 4.787109,0.7050781 2.337891,0 3.581055,-0.7792968 1.243164,-0.7792969 1.243164,-2.2265625 0,-1.2988282 -0.853516,-2.0039063 -0.834961,-0.7050785 -3.358398,-1.2617185 l -2.764649,-0.612305 q -4.15625,-0.890625 -6.085937,-2.838867 -1.911133,-1.948242 -1.911133,-5.250977 0,-4.137695 2.671875,-6.364257 2.671875,-2.226563 7.681641,-2.226563 2.282226,0 4.694336,0.352539 2.412109,0.333984 4.99121,1.020508 z M 3.4882813,-27.702148 H 22.766602 v 5.399414 H 10.631836 v 5.158203 h 11.411133 v 5.399414 H 10.631836 v 6.3457029 H 23.174805 V 0 H 3.4882813 Z m 298.7112487,-39.9001 h 19.27832 v 5.399414 h -12.13477 v 5.158203 h 11.41114 v 5.399414 h -11.41114 v 6.345703 h 12.54297 v 5.399414 h -19.68652 z m -28.08199,0 h 7.14356 v 16.606445 q 0,3.432617 1.11328,4.916992 1.13184,1.465821 3.67383,1.465821 2.56054,0 3.67383,-1.465821 1.13183,-1.484375 1.13183,-4.916992 v -16.606445 h 7.14356 v 16.606445 q 0,5.881836 -2.9502,8.757813 -2.95019,2.875976 -8.99902,2.875976 -6.03028,0 -8.98047,-2.875976 -2.9502,-2.875977 -2.9502,-8.757813 z m -18.23896,28.203125 h -0.55665 q -6.84667,0 -10.65039,-3.785156 -3.80371,-3.785157 -3.80371,-10.539063 0,-6.735352 3.78516,-10.557617 3.80371,-3.822266 10.46484,-3.822266 6.73535,0 10.4834,3.785156 3.7666,3.785157 3.7666,10.594727 0,4.675781 -2.0039,8.052734 -1.98535,3.376954 -5.7334,5.083985 l 5.58496,6.234375 h -6.80957 z m -0.76075,-23.527344 q -3.26562,0 -5.06543,2.412109 -1.7998,2.41211 -1.7998,6.791016 0,4.453125 1.76269,6.828125 1.7627,2.356445 5.10254,2.356445 3.28418,0 5.08399,-2.412109 1.7998,-2.412109 1.7998,-6.772461 0,-4.378906 -1.7998,-6.791016 -1.79981,-2.412109 -5.08399,-2.412109 z m -15.52617,-3.803711 v 5.863281 q -2.28222,-1.020508 -4.45312,-1.540039 -2.1709,-0.519531 -4.10059,-0.519531 -2.56054,0 -3.78515,0.705078 -1.22461,0.705078 -1.22461,2.189453 0,1.113281 0.8164,1.744141 0.83497,0.612304 3.00586,1.057617 l 3.04297,0.612305 q 4.62012,0.927734 6.56836,2.820312 1.94824,1.892578 1.94824,5.38086 0,4.583007 -2.72754,6.828125 -2.70898,2.226562 -8.29394,2.226562 -2.63477,0 -5.28809,-0.500976 -2.65332,-0.500977 -5.30664,-1.484375 v -6.030274 q 2.65332,1.410156 5.1211,2.133789 2.48632,0.705078 4.78711,0.705078 2.33789,0 3.58105,-0.779296 1.24316,-0.779297 1.24316,-2.226563 0,-1.298828 -0.85351,-2.003906 -0.83496,-0.705079 -3.3584,-1.261719 l -2.76465,-0.612305 q -4.15625,-0.890625 -6.08594,-2.838867 -1.91113,-1.948242 -1.91113,-5.250977 0,-4.137695 2.67188,-6.364257 2.67187,-2.226563 7.68164,-2.226563 2.28222,0 4.69433,0.352539 2.41211,0.333984 4.99121,1.020508 z m -31.04377,21.783203 h -11.16992 l -1.7627,5.046875 h -7.18066 l 10.26074,-27.702148 h 8.5166 l 10.26074,27.702148 h -7.18066 z m -9.38867,-5.139648 h 7.58886 l -3.78515,-11.021485 z m -42.00188,-17.515625 h 9.0918 l 6.30859,14.825195 6.3457,-14.825195 h 9.07324 V -39.9001 h -6.7539 v -20.261719 l -6.38281,14.936524 h -4.52735 L 163.9298,-60.161819 V -39.9001 h -6.77246 z m -32.984,0 h 19.27833 v 5.399414 H 131.3169 v 5.158203 h 11.41113 v 5.399414 H 131.3169 v 6.345703 h 12.54297 v 5.399414 h -19.68653 z m -21.204,0 h 7.14355 v 22.302734 h 12.54297 v 5.399414 h -19.68652 z m -20.168354,20.521484 h 6.679688 v 5.65918 l -4.583008,6.920898 h -3.952148 l 1.855468,-6.920898 z M 68.27534,-67.602248 h 7.143555 V -39.9001 H 68.27534 Z m -5.657251,26.180664 q -1.966797,1.020508 -4.100586,1.540039 -2.133789,0.519531 -4.453125,0.519531 -6.920898,0 -10.96582,-3.859375 -4.044922,-3.877929 -4.044922,-10.501953 0,-6.642578 4.044922,-10.501953 4.044922,-3.87793 10.96582,-3.87793 2.319336,0 4.453125,0.519531 2.133789,0.519532 4.100586,1.540039 v 5.733399 q -1.985352,-1.354492 -3.915039,-1.985352 -1.929688,-0.630859 -4.063477,-0.630859 -3.822265,0 -6.011718,2.449219 -2.189454,2.449218 -2.189454,6.753906 0,4.286133 2.189454,6.735352 2.189453,2.449218 6.011718,2.449218 2.133789,0 4.063477,-0.630859 1.929687,-0.630859 3.915039,-1.985352 z m -36.10475,-26.180664 h 7.143555 V -39.9001 h -7.143555 z" />
  </g>
  <g
     aria-label="Ensemble,"
     transform="matrix(1.33333 0 0 1.33333 189.2 818.4)"
     id="text758"
     style="font-weight:800;font-size:25px;font-family:'Marianne ExtraBold';-inkscape-font-specification:Marianne-ExtraBold;fill:#283a7f" />
  <g
     aria-label="faisons bloc contre le coronavirus"
     transform="matrix(1.33333 0 0 1.33333 -.6 855.7)"
     id="text762"
     style="font-weight:800;font-size:25px;font-family:'Marianne ExtraBold';-inkscape-font-specification:Marianne-ExtraBold;fill:#283a7f">
    <path
       id="EnsembleFaisonsBloc"
       d="m 409.50076,-13.244629 v 3.3203126 q -1.40381,-0.5859376 -2.70996,-0.8789066 -1.30615,-0.292968 -2.46582,-0.292968 -1.24512,0 -1.85547,0.317382 -0.59814,0.305176 -0.59814,0.9521488 0,0.5249024 0.45166,0.8056641 0.46387,0.2807617 1.64795,0.4150391 l 0.76904,0.1098632 q 3.35693,0.4272461 4.5166,1.4038086 1.15967,0.9765625 1.15967,3.0639649 0,2.1850586 -1.61133,3.28369139 -1.61133,1.09863282 -4.80957,1.09863282 -1.35498,0 -2.80762,-0.21972657 -1.44043,-0.20751953 -2.9663,-0.63476562 V -3.8208008 q 1.30615,0.6347656 2.67334,0.9521485 1.37939,0.3173828 2.79541,0.3173828 1.28173,0 1.92871,-0.3540039 0.64697,-0.3540039 0.64697,-1.0498047 0,-0.5859375 -0.45166,-0.8666992 -0.43945,-0.2929688 -1.77002,-0.4516602 l -0.76904,-0.097656 q -2.91748,-0.366211 -4.08936,-1.3549805 -1.17187,-0.9887695 -1.17187,-3.0029297 0,-2.1728513 1.48925,-3.2226563 1.48926,-1.049805 4.56543,-1.049805 1.2085,0 2.53907,0.183106 1.33056,0.183105 2.89306,0.57373 z m -25.67764,7.9223634 v -8.3496094 h 4.39453 v 1.367187 q 0,1.11084 -0.0122,2.7954107 -0.0122,1.6723632 -0.0122,2.2338867 0,1.6479492 0.0854,2.3803711 0.0855,0.7202148 0.29297,1.0498047 0.26855,0.427246 0.6958,0.6591796 0.43945,0.2319336 1.00097,0.2319336 1.36719,0 2.14844,-1.0498046 0.78125,-1.0498047 0.78125,-2.9174805 v -6.7504883 h 4.37012 V 0 h -4.37012 v -1.9775391 q -0.98877,1.1962891 -2.09961,1.77001957 -1.09863,0.56152344 -2.4292,0.56152344 -2.36816,0 -3.61328,-1.45263671 -1.23291,-1.4526367 -1.23291,-4.2236328 z m -0.49725,-4.6264649 q -0.57373,-0.2685545 -1.14746,-0.3906245 -0.56153,-0.134278 -1.13526,-0.134278 -1.68457,0 -2.6001,1.086426 -0.90332,1.0742187 -0.90332,3.0883789 V 0 h -4.37011 v -13.671875 h 4.37011 v 2.246094 q 0.84229,-1.342774 1.92871,-1.953125 1.09864,-0.622559 2.62452,-0.622559 0.21972,0 0.47607,0.02441 0.25635,0.01221 0.74463,0.07324 z m -17.38126,-3.7231445 h 4.37012 V 0 h -4.37012 z m 0,-5.322266 h 4.37012 v 3.564453 h -4.37012 z m -15.39618,5.322266 h 4.37012 l 3.40576,9.4482422 3.39355,-9.4482422 h 4.38233 L 360.71689,0 h -4.79736 z m -6.27341,7.5195313 q -1.36718,0 -2.06298,0.4638671 -0.6836,0.4638672 -0.6836,1.3671875 0,0.8300782 0.54932,1.3061524 0.56152,0.4638672 1.55029,0.4638672 1.23291,0 2.0752,-0.8789063 0.84228,-0.8911133 0.84228,-2.2216797 v -0.5004882 z m 6.67725,-1.6479493 V 0 h -4.40674 v -2.0263672 q -0.8789,1.2451172 -1.97754,1.81884767 -1.09863,0.56152344 -2.67334,0.56152344 -2.12402,0 -3.45459,-1.23291016 -1.31836,-1.24511715 -1.31836,-3.22265625 0,-2.4047852 1.64795,-3.527832 1.66016,-1.1230469 5.2002,-1.1230469 h 2.57568 v -0.3417969 q 0,-1.0375977 -0.81787,-1.5136717 -0.81787,-0.488281 -2.55127,-0.488281 -1.40381,0 -2.6123,0.280761 -1.2085,0.280762 -2.2461,0.8422855 v -3.3325195 q 1.40381,-0.341797 2.81983,-0.512695 1.41601,-0.183106 2.83203,-0.183106 3.69873,0 5.33447,1.464844 1.64795,1.452637 1.64795,4.736328 z M 336.56723,-8.3251953 V 0 h -4.39453 v -1.3549805 -5.0170898 q 0,-1.7700195 -0.0855,-2.4414063 -0.0732,-0.6713867 -0.26855,-0.9887695 -0.25635,-0.4272459 -0.69581,-0.6591799 -0.43945,-0.24414 -1.00097,-0.24414 -1.36719,0 -2.14844,1.0620113 -0.78125,1.0498047 -0.78125,2.9174805 V 0 h -4.37012 v -13.671875 h 4.37012 v 2.001953 q 0.98877,-1.196289 2.09961,-1.757812 1.11084,-0.573731 2.45361,-0.573731 2.36817,0 3.58887,1.452637 1.23291,1.452637 1.23291,4.2236327 z m -22.91379,-2.5512697 q -1.45263,0 -2.22168,1.0498048 -0.75683,1.0375977 -0.75683,3.0029297 0,1.9653321 0.75683,3.0151367 0.76905,1.0375977 2.22168,1.0375977 1.42823,0 2.18506,-1.0375977 0.75684,-1.0498046 0.75684,-3.0151367 0,-1.965332 -0.75684,-3.0029297 -0.75683,-1.0498048 -2.18506,-1.0498048 z m 0,-3.125 q 3.52783,0 5.50537,1.904297 1.98975,1.904297 1.98975,5.2734375 0,3.3691407 -1.98975,5.2734375 -1.97754,1.90429691 -5.50537,1.90429691 -3.54004,0 -5.54199,-1.90429691 -1.98975,-1.9042968 -1.98975,-5.2734375 0,-3.3691405 1.98975,-5.2734375 2.00195,-1.904297 5.54199,-1.904297 z m -6.52508,4.0527345 q -0.57373,-0.2685545 -1.14746,-0.3906245 -0.56153,-0.134278 -1.13526,-0.134278 -1.68457,0 -2.6001,1.086426 -0.90332,1.0742187 -0.90332,3.0883789 V 0 h -4.37011 v -13.671875 h 4.37011 v 2.246094 q 0.84229,-1.342774 1.92872,-1.953125 1.09863,-0.622559 2.62451,-0.622559 0.21972,0 0.47607,0.02441 0.25635,0.01221 0.74463,0.07324 z m -19.32489,-0.9277345 q -1.45264,0 -2.22168,1.0498048 -0.75684,1.0375977 -0.75684,3.0029297 0,1.9653321 0.75684,3.0151367 0.76904,1.0375977 2.22168,1.0375977 1.42822,0 2.18506,-1.0375977 0.75683,-1.0498046 0.75683,-3.0151367 0,-1.965332 -0.75683,-3.0029297 -0.75684,-1.0498048 -2.18506,-1.0498048 z m 0,-3.125 q 3.52783,0 5.50537,1.904297 1.98974,1.904297 1.98974,5.2734375 0,3.3691407 -1.98974,5.2734375 -1.97754,1.90429691 -5.50537,1.90429691 -3.54004,0 -5.542,-1.90429691 -1.98974,-1.9042968 -1.98974,-5.2734375 0,-3.3691405 1.98974,-5.2734375 2.00196,-1.904297 5.542,-1.904297 z m -8.534,0.756836 v 3.5644532 q -0.89111,-0.6103512 -1.79443,-0.9033202 -0.89112,-0.292969 -1.85547,-0.292969 -1.83106,0 -2.85645,1.0742189 -1.01318,1.0620117 -1.01318,2.9785156 0,1.9165039 1.01318,2.9907227 1.02539,1.0620117 2.85645,1.0620117 1.02539,0 1.94092,-0.3051758 0.92773,-0.3051758 1.70898,-0.9033203 v 3.57666017 q -1.02539,0.37841797 -2.0874,0.56152344 -1.04981,0.1953125 -2.11182,0.1953125 -3.69873,0 -5.78613,-1.89208981 -2.0874,-1.9042969 -2.0874,-5.2856446 0,-3.3813475 2.0874,-5.2734375 2.0874,-1.904297 5.78613,-1.904297 1.07422,0 2.11182,0.195313 1.0498,0.183105 2.0874,0.561523 z m -18.57491,6.3720704 v 1.2451172 h -10.21728 q 0.15869,1.5380859 1.11084,2.3071289 0.95215,0.769043 2.66113,0.769043 1.3794,0 2.81983,-0.4028321 1.45263,-0.415039 2.97851,-1.2451171 v 3.36914057 q -1.55029,0.5859375 -3.10058,0.87890625 -1.5503,0.30517579 -3.10059,0.30517579 -3.71094,0 -5.77393,-1.87988281 -2.05078,-1.8920899 -2.05078,-5.2978516 0,-3.3447265 2.01416,-5.2612305 2.02637,-1.916504 5.56641,-1.916504 3.22266,0 5.15137,1.940918 1.94091,1.940918 1.94091,5.1879884 z m -4.49218,-1.4526367 q 0,-1.2451172 -0.73242,-2.0019527 -0.72022,-0.769043 -1.89209,-0.769043 -1.26954,0 -2.06299,0.720214 -0.79346,0.7080082 -0.98877,2.0507817 z M 239.82211,-18.994141 h 4.37012 V 0 h -4.37012 z m -7.52754,12.1215824 v 1.2451172 h -10.21728 q 0.15869,1.5380859 1.11084,2.3071289 0.95214,0.769043 2.66113,0.769043 1.37939,0 2.81982,-0.4028321 1.45264,-0.415039 2.97852,-1.2451171 v 3.36914057 q -1.55029,0.5859375 -3.10059,0.87890625 -1.55029,0.30517579 -3.10058,0.30517579 -3.71094,0 -5.77393,-1.87988281 -2.05078,-1.8920899 -2.05078,-5.2978516 0,-3.3447265 2.01416,-5.2612305 2.02637,-1.916504 5.56641,-1.916504 3.22265,0 5.15136,1.940918 1.94092,1.940918 1.94092,5.1879884 z m -4.49219,-1.4526367 q 0,-1.2451172 -0.73242,-2.0019527 -0.72021,-0.769043 -1.89209,-0.769043 -1.26953,0 -2.06299,0.720214 -0.79345,0.7080082 -0.98877,2.0507817 z m -9.17402,-1.6235352 q -0.57373,-0.2685545 -1.14746,-0.3906245 -0.56153,-0.134278 -1.13526,-0.134278 -1.68457,0 -2.6001,1.086426 -0.90332,1.0742187 -0.90332,3.0883789 V 0 h -4.37011 v -13.671875 h 4.37011 v 2.246094 q 0.84229,-1.342774 1.92872,-1.953125 1.09863,-0.622559 2.62451,-0.622559 0.21972,0 0.47607,0.02441 0.25635,0.01221 0.74463,0.07324 z m -16.23329,-7.6049805 v 3.881836 h 4.50439 v 3.125 h -4.50439 v 5.7983398 q 0,0.9521485 0.37841,1.2939454 Q 203.1519,-3.125 204.27495,-3.125 h 2.24609 V 0 h -3.74756 q -2.58789,0 -3.67431,-1.0742187 -1.07422,-1.0864258 -1.07422,-3.6743165 v -5.7983398 h -2.17285 v -3.125 h 2.17285 v -3.881836 z m -6.35285,9.2285157 V 0 h -4.39453 v -1.3549805 -5.0170898 q 0,-1.7700195 -0.0855,-2.4414063 -0.0732,-0.6713867 -0.26855,-0.9887695 -0.25635,-0.4272459 -0.6958,-0.6591799 -0.43946,-0.24414 -1.00098,-0.24414 -1.36719,0 -2.14844,1.0620113 -0.78125,1.0498047 -0.78125,2.9174805 V 0 h -4.37012 v -13.671875 h 4.37012 v 2.001953 q 0.98877,-1.196289 2.09961,-1.757812 1.11084,-0.573731 2.45361,-0.573731 2.36817,0 3.58887,1.452637 1.23291,1.452637 1.23291,4.2236327 z m -22.91376,-2.5512697 q -1.45263,0 -2.22168,1.0498048 -0.75683,1.0375977 -0.75683,3.0029297 0,1.9653321 0.75683,3.0151367 0.76905,1.0375977 2.22168,1.0375977 1.42823,0 2.18506,-1.0375977 0.75684,-1.0498046 0.75684,-3.0151367 0,-1.965332 -0.75684,-3.0029297 -0.75683,-1.0498048 -2.18506,-1.0498048 z m 0,-3.125 q 3.52784,0 5.50537,1.904297 1.98975,1.904297 1.98975,5.2734375 0,3.3691407 -1.98975,5.2734375 -1.97753,1.90429691 -5.50537,1.90429691 -3.54004,0 -5.54199,-1.90429691 -1.98974,-1.9042968 -1.98974,-5.2734375 0,-3.3691405 1.98974,-5.2734375 2.00195,-1.904297 5.54199,-1.904297 z m -8.53399,0.756836 v 3.5644532 q -0.89112,-0.6103512 -1.79444,-0.9033202 -0.89111,-0.292969 -1.85547,-0.292969 -1.83105,0 -2.85644,1.0742189 -1.01318,1.0620117 -1.01318,2.9785156 0,1.9165039 1.01318,2.9907227 1.02539,1.0620117 2.85644,1.0620117 1.0254,0 1.94092,-0.3051758 0.92774,-0.3051758 1.70899,-0.9033203 v 3.57666017 q -1.02539,0.37841797 -2.08741,0.56152344 -1.0498,0.1953125 -2.11181,0.1953125 -3.69873,0 -5.78613,-1.89208981 -2.08741,-1.9042969 -2.08741,-5.2856446 0,-3.3813475 2.08741,-5.2734375 2.0874,-1.904297 5.78613,-1.904297 1.07422,0 2.11181,0.195313 1.04981,0.183105 2.08741,0.561523 z m -20.325,0 v 3.5644532 q -0.89111,-0.6103512 -1.79443,-0.9033202 -0.89112,-0.292969 -1.85547,-0.292969 -1.83106,0 -2.85645,1.0742189 -1.01318,1.0620117 -1.01318,2.9785156 0,1.9165039 1.01318,2.9907227 1.02539,1.0620117 2.85645,1.0620117 1.02539,0 1.94092,-0.3051758 0.92773,-0.3051758 1.70898,-0.9033203 v 3.57666017 q -1.02539,0.37841797 -2.0874,0.56152344 -1.04981,0.1953125 -2.11182,0.1953125 -3.69873,0 -5.78613,-1.89208981 -2.0874,-1.9042969 -2.0874,-5.2856446 0,-3.3813475 2.0874,-5.2734375 2.0874,-1.904297 5.78613,-1.904297 1.07422,0 2.11182,0.195313 1.0498,0.183105 2.0874,0.561523 z m -20.33852,2.368164 q -1.45263,0 -2.22168,1.0498048 -0.75683,1.0375977 -0.75683,3.0029297 0,1.9653321 0.75683,3.0151367 0.76905,1.0375977 2.22168,1.0375977 1.42823,0 2.18506,-1.0375977 0.75684,-1.0498046 0.75684,-3.0151367 0,-1.965332 -0.75684,-3.0029297 -0.75683,-1.0498048 -2.18506,-1.0498048 z m 0,-3.125 q 3.52784,0 5.50538,1.904297 1.98974,1.904297 1.98974,5.2734375 0,3.3691407 -1.98974,5.2734375 -1.97754,1.90429691 -5.50538,1.90429691 -3.54004,0 -5.54199,-1.90429691 -1.98974,-1.9042968 -1.98974,-5.2734375 0,-3.3691405 1.98974,-5.2734375 2.00195,-1.904297 5.54199,-1.904297 z m -13.73134,-4.992676 h 4.37012 V 0 h -4.37012 z M 101.175,-2.8198242 q 1.40381,0 2.13623,-1.0253906 0.74463,-1.0253907 0.74463,-2.9785157 0,-1.953125 -0.74463,-2.9785156 -0.73242,-1.0253909 -2.13623,-1.0253909 -1.403806,0 -2.160641,1.0375979 -0.744629,1.0253907 -0.744629,2.9663086 0,1.940918 0.744629,2.9785157 0.756835,1.0253906 2.160641,1.0253906 z m -2.90527,-8.8500978 q 0.90332,-1.196289 2.00195,-1.757812 1.09864,-0.573731 2.52686,-0.573731 2.52685,0 4.15039,2.01416 1.62353,2.0019534 1.62353,5.1635745 0,3.1616211 -1.62353,5.1757813 -1.62354,2.00195311 -4.15039,2.00195311 -1.42822,0 -2.52686,-0.56152344 Q 99.17305,-0.78125 98.26973,-1.9775391 V 0 h -4.370118 v -18.994141 h 4.370118 z m -12.113968,-1.574707 v 3.3203126 q -1.403809,-0.5859376 -2.709961,-0.8789066 -1.306153,-0.292968 -2.465821,-0.292968 -1.245117,0 -1.855468,0.317382 -0.598145,0.305176 -0.598145,0.9521488 0,0.5249024 0.45166,0.8056641 0.463868,0.2807617 1.64795,0.4150391 l 0.769043,0.1098632 q 3.356933,0.4272461 4.516601,1.4038086 1.159668,0.9765625 1.159668,3.0639649 0,2.1850586 -1.611328,3.28369139 -1.611328,1.09863282 -4.80957,1.09863282 -1.354981,0 -2.807618,-0.21972657 -1.440429,-0.20751953 -2.966308,-0.63476562 V -3.8208008 q 1.306152,0.6347656 2.67334,0.9521485 1.379394,0.3173828 2.79541,0.3173828 1.281738,0 1.928711,-0.3540039 0.646972,-0.3540039 0.646972,-1.0498047 0,-0.5859375 -0.45166,-0.8666992 -0.439453,-0.2929688 -1.770019,-0.4516602 l -0.769043,-0.097656 q -2.917481,-0.366211 -4.089356,-1.3549805 -1.171875,-0.9887695 -1.171875,-3.0029297 0,-2.1728513 1.489258,-3.2226563 1.489258,-1.049805 4.56543,-1.049805 1.208496,0 2.539062,0.183106 1.330567,0.183105 2.893067,0.57373 z M 73.894726,-8.3251953 V 0 h -4.394531 v -1.3549805 -5.0170898 q 0,-1.7700195 -0.08545,-2.4414063 -0.07324,-0.6713867 -0.268554,-0.9887695 -0.256348,-0.4272459 -0.695801,-0.6591799 -0.439453,-0.24414 -1.000977,-0.24414 -1.367187,0 -2.148437,1.0620113 -0.78125,1.0498047 -0.78125,2.9174805 V 0 h -4.370117 v -13.671875 h 4.370117 v 2.001953 q 0.988769,-1.196289 2.099609,-1.757812 1.11084,-0.573731 2.453613,-0.573731 2.368165,0 3.588868,1.452637 1.23291,1.452637 1.23291,4.2236327 z M 50.980957,-10.876465 q -1.452637,0 -2.22168,1.0498048 -0.756836,1.0375977 -0.756836,3.0029297 0,1.9653321 0.756836,3.0151367 0.769043,1.0375977 2.22168,1.0375977 1.428223,0 2.185059,-1.0375977 0.756836,-1.0498046 0.756836,-3.0151367 0,-1.965332 -0.756836,-3.0029297 -0.756836,-1.0498048 -2.185059,-1.0498048 z m 0,-3.125 q 3.527832,0 5.505371,1.904297 1.989746,1.904297 1.989746,5.2734375 0,3.3691407 -1.989746,5.2734375 -1.977539,1.90429691 -5.505371,1.90429691 -3.540039,0 -5.541992,-1.90429691 -1.989746,-1.9042968 -1.989746,-5.2734375 0,-3.3691405 1.989746,-5.2734375 2.001953,-1.904297 5.541992,-1.904297 z m -7.500195,0.756836 v 3.3203126 q -1.403808,-0.5859376 -2.70996,-0.8789066 -1.306153,-0.292968 -2.465821,-0.292968 -1.245117,0 -1.855469,0.317382 -0.598144,0.305176 -0.598144,0.9521488 0,0.5249024 0.45166,0.8056641 0.463867,0.2807617 1.647949,0.4150391 l 0.769043,0.1098632 q 3.356934,0.4272461 4.516602,1.4038086 1.159668,0.9765625 1.159668,3.0639649 0,2.1850586 -1.611328,3.28369139 -1.611328,1.09863282 -4.809571,1.09863282 -1.35498,0 -2.807617,-0.21972657 -1.440429,-0.20751953 -2.966308,-0.63476562 V -3.8208008 q 1.306152,0.6347656 2.673339,0.9521485 1.379395,0.3173828 2.795411,0.3173828 1.281738,0 1.928711,-0.3540039 0.646972,-0.3540039 0.646972,-1.0498047 0,-0.5859375 -0.45166,-0.8666992 -0.439453,-0.2929688 -1.770019,-0.4516602 l -0.769043,-0.097656 q -2.917481,-0.366211 -4.089356,-1.3549805 -1.171875,-0.9887695 -1.171875,-3.0029297 0,-2.1728513 1.489258,-3.2226563 1.489258,-1.049805 4.56543,-1.049805 1.208496,0 2.539062,0.183106 1.330566,0.183105 2.893066,0.57373 z M 25.82461,-13.671875 h 4.370117 V 0 H 25.82461 Z m 0,-5.322266 h 4.370117 v 3.564453 H 25.82461 Z m -8.122071,12.8417973 q -1.367187,0 -2.062988,0.4638671 -0.683594,0.4638672 -0.683594,1.3671875 0,0.8300782 0.549317,1.3061524 0.561523,0.4638672 1.550293,0.4638672 1.23291,0 2.075195,-0.8789063 0.842285,-0.8911133 0.842285,-2.2216797 V -6.1523437 Z M 24.379786,-7.800293 V 0 h -4.406739 v -2.0263672 q -0.878906,1.2451172 -1.977539,1.81884767 -1.098633,0.56152344 -2.67334,0.56152344 -2.124023,0 -3.454589,-1.23291016 -1.31836,-1.24511715 -1.31836,-3.22265625 0,-2.4047852 1.647949,-3.527832 1.660157,-1.1230469 5.200196,-1.1230469 h 2.575683 v -0.3417969 q 0,-1.0375977 -0.817871,-1.5136717 -0.817871,-0.488281 -2.551269,-0.488281 -1.403809,0 -2.612305,0.280761 -1.208496,0.280762 -2.246094,0.8422855 v -3.3325195 q 1.403809,-0.341797 2.819824,-0.512695 1.416016,-0.183106 2.832032,-0.183106 3.69873,0 5.334472,1.464844 1.64795,1.452637 1.64795,4.736328 z M 11.096191,-18.994141 v 2.868653 H 8.6791992 q -0.9277344,0 -1.2939453,0.341797 -0.3662109,0.329589 -0.3662109,1.159668 v 0.952148 h 3.735352 v 3.125 H 7.019043 V 0 H 2.6489258 V -10.546875 H 0.47607422 v -3.125 H 2.6489258 v -0.952148 q 0,-2.233887 1.2451172,-3.295899 1.2451172,-1.074219 3.8574218,-1.074219 z m 250.630439,-13.70505 h 4.39453 v 3.723144 l -3.01514,4.553223 h -2.6001 l 1.22071,-4.553223 z m -1.2292,-2.148438 v 1.245118 h -10.21728 q 0.15869,1.538086 1.11084,2.307129 0.95214,0.769043 2.66113,0.769043 1.37939,0 2.81982,-0.402833 1.45264,-0.415039 2.97852,-1.245117 v 3.369141 q -1.55029,0.585937 -3.10059,0.878906 -1.55029,0.305176 -3.10058,0.305176 -3.71094,0 -5.77393,-1.879883 -2.05078,-1.89209 -2.05078,-5.297851 0,-3.344727 2.01416,-5.261231 2.02637,-1.916504 5.56641,-1.916504 3.22265,0 5.15136,1.940918 1.94092,1.940918 1.94092,5.187988 z m -4.49219,-1.452636 q 0,-1.245117 -0.73242,-2.001953 -0.72021,-0.769043 -1.89209,-0.769043 -1.26953,0 -2.06299,0.720214 -0.79345,0.708008 -0.98877,2.050782 z m -16.38027,-10.668946 h 4.37012 v 18.994141 h -4.37012 z m -9.02461,16.174317 q 1.4038,0 2.13623,-1.025391 0.74462,-1.02539 0.74462,-2.978515 0,-1.953125 -0.74462,-2.978516 -0.73243,-1.025391 -2.13623,-1.025391 -1.40381,0 -2.16065,1.037598 -0.74463,1.025391 -0.74463,2.966309 0,1.940918 0.74463,2.978515 0.75684,1.025391 2.16065,1.025391 z m -2.90528,-8.850098 q 0.90332,-1.196289 2.00196,-1.757812 1.09863,-0.573731 2.52685,-0.573731 2.52686,0 4.15039,2.01416 1.62354,2.001953 1.62354,5.163575 0,3.161621 -1.62354,5.175781 -1.62353,2.001953 -4.15039,2.001953 -1.42822,0 -2.52685,-0.561523 -1.09864,-0.573731 -2.00196,-1.77002 v 1.977539 h -4.37012 v -18.994141 h 4.37012 z m -14.19922,0.268555 q 0.83008,-1.269531 1.96534,-1.928711 1.14746,-0.671387 2.51464,-0.671387 2.35596,0 3.58887,1.452637 1.23291,1.452637 1.23291,4.223633 v 8.325195 h -4.39453 v -7.128906 q 0.0122,-0.158692 0.0122,-0.32959 0.0122,-0.170898 0.0122,-0.488281 0,-1.452637 -0.42725,-2.09961 -0.42724,-0.659179 -1.37939,-0.659179 -1.24512,0 -1.92871,1.02539 -0.67139,1.025391 -0.6958,2.966309 v 6.713867 h -4.39453 v -7.128906 q 0,-2.270508 -0.39063,-2.917481 -0.39062,-0.659179 -1.3916,-0.659179 -1.25732,0 -1.94092,1.037597 -0.68359,1.025391 -0.68359,2.941895 v 6.726074 h -4.39453 v -13.671875 h 4.39453 v 2.001953 q 0.80566,-1.159668 1.84326,-1.745605 1.0498,-0.585938 2.30713,-0.585938 1.41601,0 2.50244,0.683594 1.08643,0.683594 1.64795,1.916504 z m -13.44843,4.528808 v 1.245118 h -10.21729 q 0.15869,1.538086 1.11084,2.307129 0.95215,0.769043 2.66113,0.769043 1.3794,0 2.81983,-0.402833 1.45264,-0.415039 2.97851,-1.245117 v 3.369141 q -1.55029,0.585937 -3.10058,0.878906 -1.55029,0.305176 -3.10059,0.305176 -3.71094,0 -5.77392,-1.879883 -2.05078,-1.89209 -2.05078,-5.297851 0,-3.344727 2.01416,-5.261231 2.02636,-1.916504 5.5664,-1.916504 3.22266,0 5.15137,1.940918 1.94092,1.940918 1.94092,5.187988 z m -4.49219,-1.452636 q 0,-1.245117 -0.73242,-2.001953 -0.72022,-0.769043 -1.89209,-0.769043 -1.26953,0 -2.06299,0.720214 -0.79346,0.708008 -0.98877,2.050782 z m -10.14912,-4.919434 v 3.320313 q -1.40381,-0.585938 -2.70996,-0.878907 -1.30616,-0.292968 -2.46582,-0.292968 -1.24512,0 -1.85547,0.317382 -0.59815,0.305176 -0.59815,0.952149 0,0.524902 0.45166,0.805664 0.46387,0.280762 1.64795,0.415039 l 0.76904,0.109863 q 3.35694,0.427246 4.51661,1.403809 1.15966,0.976562 1.15966,3.063965 0,2.185058 -1.61132,3.283691 -1.61133,1.098633 -4.80957,1.098633 -1.35498,0 -2.80762,-0.219727 -1.44043,-0.207519 -2.96631,-0.634765 v -3.320313 q 1.30615,0.634766 2.67334,0.952149 1.37939,0.317383 2.79541,0.317383 1.28174,0 1.92871,-0.354004 0.64697,-0.354004 0.64697,-1.049805 0,-0.585938 -0.45166,-0.866699 -0.43945,-0.292969 -1.77002,-0.45166 l -0.76904,-0.09766 q -2.91748,-0.366211 -4.08935,-1.354981 -1.17188,-0.988769 -1.17188,-3.00293 0,-2.172851 1.48926,-3.222656 1.48926,-1.049805 4.56543,-1.049805 1.20849,0 2.53906,0.183106 1.33057,0.183105 2.89307,0.57373 z m -12.26104,4.919434 v 8.325195 h -4.39453 v -1.35498 -5.01709 q 0,-1.77002 -0.0855,-2.441407 -0.0732,-0.671386 -0.26855,-0.988769 -0.25635,-0.427246 -0.69581,-0.65918 -0.43945,-0.24414 -1.00097,-0.24414 -1.36719,0 -2.14844,1.062011 -0.78125,1.049805 -0.78125,2.917481 v 6.726074 h -4.37012 v -13.671875 h 4.37012 v 2.001953 q 0.98877,-1.196289 2.09961,-1.757812 1.11084,-0.573731 2.45361,-0.573731 2.36817,0 3.58887,1.452637 1.23291,1.452637 1.23291,4.223633 z m -28.4998,-9.899903 h 12.6831 v 3.552246 h -7.9834 v 3.393555 h 7.50733 v 3.552246 h -7.50733 v 4.174805 h 8.25196 v 3.552246 h -12.95166 z" />
  </g>
  <path
     fill="none"
     stroke="#ed1c24"
     stroke-miterlimit="10"
     stroke-width="5.33332"
     d="M46.7 242h191.6l-11 31.9 44.8-32h224.4"
     id="Bulle" />
  <g
     transform="matrix(1.33333 0 0 -1.33333 -157.3 952)"
     id="homme">
    <path
       sodipodi:nodetypes="cccccc"
       fill="none"
       stroke="#283a7f"
       stroke-linecap="round"
       stroke-miterlimit="10"
       stroke-width="2.5"
       d="m 267.2,229.3 c 26.58684,-37.55887 71.36338,13.09651 99.3,-9.5 0,0 37.74092,-6.62633 52.04092,-18.02633 -51.33853,-44.84495 -168.62229,-51.01743 -201.24959,8.80657 19.6,9.3 30.00867,10.11976 37.60867,16.51976 7.6,6.3 12.3,2.2 12.3,2.2 z"
       id="path784" />
    <path
       sodipodi:nodetypes="cccccc"
       fill="#3f5fb5"
       d="m 267.2,229.3 c 25.36972,-26.13565 86.43094,16.79035 99.3,-9.5 0,0 37.74092,-6.62633 52.04092,-18.02633 -35.76414,-35.57321 -124.67316,-61.63678 -206.23193,7.03017 19.6,9.3 34.99101,11.89616 42.59101,18.29616 7.6,6.3 12.3,2.2 12.3,2.2"
       id="path782" />
    <path
       sodipodi:nodetypes="csscccccccccccccsccccccccc"
       fill="#ffffff"
       d="m 258,344.7 c 0,0 -4,1.2 -5.6,-4.8 -1.6,-6 3.1,-23.2 5.8,-29.4 2.7,-6.2 3.5,-15.5 10.6,-14 l 7.7,-18.9 c 0,0 4.2,-21.8 0.5,-31.1 -4.3625,-8.7779 -9.65986,-17.05921 -15.8,-24.7 l 30.68934,-21.17412 17.97792,-5.71861 30.52979,3.46809 L 368.1,215.9 c 0,0 -9.5,17.2 -6.4,34.4 3.2,17.2 5.7,26.5 5.7,26.5 0,0 8,7.3 10.8,18.7 0,0 3.1,-1.4 5.7,2.2 2.5,3.6 6.8,15.5 7.7,18 1,2.6 8.4,19.5 4.6,25 -3.8,5.5 -8,3.3 -8,3.3 l -5,39.2 -23.5,32.3 -43.5,8.8 -18.8,-9.5 -15.2,-6.4 -15.3,-20.6 -1.3,-28.3 z"
       id="path770" />
    <path
       sodipodi:nodetypes="csscccccccccccccsccccccccc"
       fill="none"
       stroke="#283a7f"
       stroke-linecap="round"
       stroke-miterlimit="10"
       stroke-width="2.5"
       d="m 258,344.7 c 0,0 -4,1.2 -5.6,-4.8 -1.6,-6 3.1,-23.2 5.8,-29.4 2.7,-6.2 3.5,-15.5 10.6,-14 l 7.7,-18.9 c 0,0 4.2,-21.8 0.5,-31.1 -4.3625,-8.7779 -9.65986,-17.05921 -15.8,-24.7 16.22242,-8.96424 9.12481,-14.18836 48.66726,-26.89273 l 18.24242,1.25626 12.28737,2.21183 L 368.1,215.9 c 0,0 -9.5,17.2 -6.4,34.4 3.2,17.2 5.7,26.5 5.7,26.5 0,0 8,7.3 10.8,18.7 0,0 3.1,-1.4 5.7,2.2 2.5,3.6 6.8,15.5 7.7,18 1,2.6 8.4,19.5 4.6,25 -3.8,5.5 -8,3.3 -8,3.3 l -5,39.2 -23.5,32.3 -43.5,8.8 -18.8,-9.5 -15.2,-6.4 -15.3,-20.6 -1.3,-28.3 z"
       id="path772" />
    <path
       fill="#3f5fb5"
       d="M262.6 338.5s2.4-6.2 15.5-9.2l-1 6.7s33.9 7.1 49 6.4c14.8-.6 47.5-6.8 47.5-6.8l-2.2-7.9s10 1.5 13.7 10.5l1.5-1.3s-2.9-9.6-14.9-11.5l-.8-30.4-4.9-15.5s5.5 3.3 7.6 6.5l-1.7-5.4-8.4-9.1s-19.9-22.2-37.6-21.8c-31 .5-43.4 25-43.4 25s-8.6 9.3-10 11.6l-.7 3.5s7.6-7.7 10-7.7c.6.5-2.7 11.7-2.7 11.7l-.7 33.1s-13.9 3.2-16.2 8.3z"
       id="path774" />
    <path
       fill="none"
       stroke="#283a7f"
       stroke-linecap="round"
       stroke-linejoin="round"
       stroke-miterlimit="10"
       stroke-width="2.5"
       d="M262.6 338.5s2.4-6.2 15.5-9.2l-1 6.7s33.9 7.1 49 6.4c14.8-.6 47.5-6.8 47.5-6.8l-2.2-7.9s10 1.5 13.7 10.5l1.5-1.3s-2.9-9.6-14.9-11.5l-.8-30.4-4.9-15.5s5.5 3.3 7.6 6.5l-1.7-5.4-8.4-9.1s-19.9-22.2-37.6-21.8c-31 .5-43.4 25-43.4 25s-8.6 9.3-10 11.6l-.7 3.5s7.6-7.7 10-7.7c.6.5-2.7 11.7-2.7 11.7l-.7 33.1s-13.9 3.2-16.2 8.3z"
       id="path776" />
    <path
       fill="#3f5fb5"
       d="M264 322.4l4 38.4s13.6 42.5 25.5 43.3c11.8.8 23.4 1 33.6 2.2 10.3 1.3 21.7 2.5 29.9-3.5s22.8-35.9 23.9-46.8c1-10.9 1-35.7 1-35.7s3 19.1 8.3 24.2c0 0 16.1 27.3 6.8 50.4a77.4 77.4 0 01-32.3 37.2c-2.3.4-10 20.3-40.4 18.5-30.5-2-61.7-20.6-69.7-48.9-8-28.3 3.3-58.3 3.3-58.3z"
       id="path778" />
    <path
       fill="none"
       stroke="#283a7f"
       stroke-linecap="round"
       stroke-linejoin="round"
       stroke-miterlimit="10"
       stroke-width="2.5"
       d="M264 322.4l4 38.4s13.6 42.5 25.5 43.3c11.8.8 23.4 1 33.6 2.2 10.3 1.3 21.7 2.5 29.9-3.5s22.8-35.9 23.9-46.8c1-10.9 1-35.7 1-35.7s3 19.1 8.3 24.2c0 0 16.1 27.3 6.8 50.4a77.4 77.4 0 01-32.3 37.2c-2.3.4-10 20.3-40.4 18.5-30.5-2-61.7-20.6-69.7-48.9-8-28.3 3.3-58.3 3.3-58.3z"
       id="path780" />
    <path
       fill="none"
       stroke="#283a7f"
       stroke-width="10.8"
       d="M321.7 164.7c83.6 0 151.7 68 151.7 151.7 0 83.6-68 151.6-151.7 151.6-83.6 0-151.6-68-151.6-151.6s68-151.7 151.6-151.7z"
       id="path788" />
  </g>
</svg>
